rladies-ml.utf8.md
…
---
# Manipulação

```r
(train <- 
  titanic_train %>% 
  select(Survived, Pclass, Sex, Age) %>%
  mutate(Survived = factor(x = Survived, labels = c("no", "yes")),
*        Pclass = factor(x = Pclass, labels = c("1st", "2nd", "3rd")),
         Sex = factor(x = Sex)) %>% 
  as_tibble())
```

```
## # A tibble: 891 x 4
##    Survived Pclass Sex      Age
##    <fct>    <fct>  <fct>  <dbl>
##  1 no       3rd    male      22
##  2 yes      1st    female    38
##  3 yes      3rd    female    26
##  4 yes      1st    female    35
##  5 no       3rd    male      35
##  6 no       3rd    male      NA
##  7 no       1st    male      54
##  8 no       3rd    male       2
##  9 yes      3rd    female    27
## 10 yes      2nd    female    14
## # … with 881 more rows
```
…
```r
(train2 <- 
  titanic_train %>% 
  select(Survived, Pclass, Sex, Age, Fare, Embarked, SibSp) %>%
  mutate(Survived = factor(x = Survived, labels = c("no", "yes")),
         Pclass = factor(x = Pclass, labels = c("1st", "2nd", "3rd")),
         Sex = factor(x = Sex),
         Embarked = factor(x = Embarked)) %>% 
  as_tibble())
```

```
## # A tibble: 891 x 7
##    Survived Pclass Sex      Age  Fare Embarked SibSp
##    <fct>    <fct>  <fct>  <dbl> <dbl> <fct>    <int>
##  1 no       3rd    male      22  7.25 S            1
##  2 yes      1st    female    38 71.3  C            1
##  3 yes      3rd    female    26  7.92 S            0
##  4 yes      1st    female    35 53.1  S            1
##  5 no       3rd    male      35  8.05 S            0
##  6 no       3rd    male      NA  8.46 Q            0
##  7 no       1st    male      54 51.9  S            0
##  8 no       3rd    male       2 21.1  S            3
##  9 yes      3rd    female    27 11.1  S            0
## 10 yes      2nd    female    14 30.1  C            1
## # … with 881 more rows
```
…
